{
  "CHANGELOG": "397d79f6d9c7de4308da2146459a1038",
  "DEVELOP.md": "69842e88a4bdc6f2d98d674e1b6e79be",
  "Gemfile": "6a7292ee9ce671042b1ba392c2517b41",
  "LICENSE": "4f960dc2fd2d219b183be6460aa70af3",
  "README.md": "00d2523287a0cfae63b147c891befe39",
  "Rakefile": "d80ce67ea0fed68691662c103b60a239",
  "TODO.md": "5422262f4fda38e16f8a4c31819d8833",
  "manifests/alias/range.pp": "239c96d64e37f4cb0308906b6b4655b8",
  "manifests/alias.pp": "df20c85893789818032058f23cc63e2b",
  "manifests/bond/bridge.pp": "42eb96de1c0b389dd40668a499d392b8",
  "manifests/bond/dynamic.pp": "a970f760e2db96fdb0b834f2a325b520",
  "manifests/bond/slave.pp": "123e4e3bb064587f7dac4d75a9b7b045",
  "manifests/bond/static.pp": "56aaf425432c1b4b6ed54565781a0955",
  "manifests/bridge/dynamic.pp": "d58ffaf1dfdcb3583f725ffbadd94433",
  "manifests/bridge/static.pp": "3c0b5f684e4a3d2f104d5e8d74c71a7c",
  "manifests/bridge.pp": "683f53e2fb4283df65816c709f81cb25",
  "manifests/global.pp": "a96b9572bed76e32d62061a8280732c5",
  "manifests/if/bridge.pp": "32c4455ffe6ac7d8f7d77943145b6c40",
  "manifests/if/dynamic.pp": "b52af6ef998f5d39cb8ffaa27fabc83e",
  "manifests/if/static.pp": "8fcbc9f9f1e63520c40ff7c334d0274c",
  "manifests/init.pp": "7b92cf1e189bdf49e2b10b5d54c5e2ee",
  "manifests/route.pp": "0c97cc7f919270dfae3681b284ca1802",
  "metadata.json": "89b2b4a5d9de627db4e334857321e4ab",
  "spec/classes/network_global_spec.rb": "b17efb9995a40b07e387d44186f621f5",
  "spec/classes/network_init_spec.rb": "6556c9a0bb9686c0e17a1245ec3163b2",
  "spec/defines/network_alias_range_spec.rb": "156b1e4733ee36c6d2599b1956c96948",
  "spec/defines/network_alias_spec.rb": "9f3abf8385f1878ca15149eed5c5d8ac",
  "spec/defines/network_bond_bridge_spec.rb": "356595bad379957b37a665c52e8c656e",
  "spec/defines/network_bond_dynamic_spec.rb": "4da373279f9d4508e457981a94aee8bd",
  "spec/defines/network_bond_slave_spec.rb": "12bc8df37c80d960ce093f240db591bb",
  "spec/defines/network_bond_static_spec.rb": "b7713bce5bc022fd137f4300856ba693",
  "spec/defines/network_bridge_dynamic_spec.rb": "3e3da583e45c7a548c467ecbde490c6b",
  "spec/defines/network_bridge_spec.rb": "edff9a1d3c7193edaf57bc4fcdab5b7d",
  "spec/defines/network_bridge_static_spec.rb": "40dc34cd1a3ed3ad57bb57af9ade0b4d",
  "spec/defines/network_if_bridge_spec.rb": "eef48fb7f6e531f40af911e0d312b8ee",
  "spec/defines/network_if_dynamic_spec.rb": "62bd4a15043e17d50ef5c4278a2ee845",
  "spec/defines/network_if_static_spec.rb": "f6c863f37cf52ed029d09da43ac08d5e",
  "spec/defines/network_route_spec.rb": "cf4e18f4afc4601e73bb370b4188ff7f",
  "spec/spec.opts": "a600ded995d948e393fbe2320ba8e51c",
  "spec/spec_helper.rb": "0db89c9a486df193c0e40095422e19dc",
  "templates/ifcfg-alias-range.erb": "1a2b16a2606d8ab1ffc4c49c29f935c9",
  "templates/ifcfg-alias.erb": "1d930d5e6e323d508e8797e2a7f5dcf7",
  "templates/ifcfg-bond.erb": "1234582313f4ff36c2c7d54ba5a16916",
  "templates/ifcfg-br.erb": "ca9b8159bf9761f93693417a4ed8bd59",
  "templates/ifcfg-eth.erb": "6f94b053639b1748d144080f6cf32659",
  "templates/network.erb": "a88a54d942a80ca1c7a7a1578021da67",
  "templates/route-eth.erb": "c654dc30d94c9bd04c95e5d974f4ad32",
  "tests/alias-range.pp": "4e1329d5f2e22bd63ca7f28d0cca5684",
  "tests/alias.pp": "1b7eeaf4270fe9566d22dd12c0834696",
  "tests/bond-dhcp.pp": "29e6d734007bf8d03404ba42c3336287",
  "tests/bond-static.pp": "8fa62e03a47ac2045cfdd179ccc5af04",
  "tests/global.pp": "7fd2a207414753843440d291be8e8a6a",
  "tests/if-bootp.pp": "1307bd2a32e9b237c9e0ab9c6591777f",
  "tests/if-dhcp.pp": "a0b9d46e372df31289ad61ffb568ad32",
  "tests/if-multiple.pp": "1c36a66cfb6b7c3a0b91b2f3d2d693cb",
  "tests/if-static.pp": "229fdf76bf21577cc74feda3452c5ceb",
  "tests/init.pp": "d83184be754f99cabb16f2916ca602d5",
  "tests/route.pp": "baaea1603d064829fdee398b8c2137f4"
}